[
  {
    "id": 1,
    "shopName": "BricoFish",
    "date": "2009-01-12"
  },
  {
    "id": 2,
    "shopName": "AquaFish",
    "date": "2020-03-02"
  },
  {
    "id": 3,
    "shopName": "FisherShop",
    "date": "1985-12-24"
  }
]